{"hash":"246ecc3a2b1fce23a887d5d42f970bf562db1c9f","data":{"tag":{"title":"tag2","path":"/tags/tag2/","belongsTo":{"totalCount":7,"pageInfo":{"totalPages":2,"currentPage":2},"edges":[{"node":{"title":"Reply 1988","excerpt":"Five childhood friends who live in the same neighborhood of Ssangmundong rely on each other as they enter the peak of their turbulent teen years.","image":{"type":"image","mimeType":"image/jpeg","src":"/6110110113_gridsome/assets/static/reply1988.4250cd3.02ba31266add4812795eb103bd85dfae.jpg","size":{"width":800,"height":450},"sizes":"(max-width: 800px) 100vw, 800px","srcset":["/6110110113_gridsome/assets/static/reply1988.1b91758.02ba31266add4812795eb103bd85dfae.jpg 480w","/6110110113_gridsome/assets/static/reply1988.4250cd3.02ba31266add4812795eb103bd85dfae.jpg 800w"],"dataUri":"data:image/svg+xml,%3csvg fill='none' viewBox='0 0 800 450' xmlns='http://www.w3.org/2000/svg' xmlns:xlink='http://www.w3.org/1999/xlink'%3e%3cdefs%3e%3cfilter id='__svg-blur-959dc249c99dc46d79620e2a9126d6d2'%3e%3cfeGaussianBlur in='SourceGraphic' stdDeviation='40'/%3e%3c/filter%3e%3c/defs%3e%3cimage x='0' y='0' filter='url(%23__svg-blur-959dc249c99dc46d79620e2a9126d6d2)' width='800' height='450' xlink:href='data:image/jpeg%3bbase64%2c/9j/2wBDAAYEBQYFBAYGBQYHBwYIChAKCgkJChQODwwQFxQYGBcUFhYaHSUfGhsjHBYWICwgIyYnKSopGR8tMC0oMCUoKSj/2wBDAQcHBwoIChMKChMoGhYaKCgoKCgoKCgoKCgoKCgoKCgoKCgoKCgoKCgoKCgoKCgoKCgoKCgoKCgoKCgoKCgoKCj/wAARCAAkAEADASIAAhEBAxEB/8QAGgAAAgMBAQAAAAAAAAAAAAAABQYAAwQHAv/EAC8QAAICAQMDAwIFBAMAAAAAAAECAwQRAAUhBhIxE0FRByIjYXGBkRQVMjMW0fH/xAAZAQACAwEAAAAAAAAAAAAAAAADBAACBQH/xAAnEQACAgEDAwIHAAAAAAAAAAABAgARAwQSQSExUQVxEyIjgbHR4f/aAAwDAQACEQMRAD8AH9OdPwbJdW7YtPLIwSOAQ15EXvLYPeWXxg/lzo70ml5KtW/LNL/QySuqM0nYJpBkAFhzgc%2bfOMZ1t3qtDDHA%2bcOZ40PcST/mDnn9NUJsd/qfo/p3b9nIMcE1gWMy9iqCRhiR7/cQMc86yAoymzNVrxkRo6k37e6G0zTTxyMjCIxSekcYA/EJ/f50sf3zrCCvG9bb6XpWAZEYyBe1VUf7MjALBQRj9DpumTbeivp3Zi34zVaFhmX0BKZXRnH%2btD%2b2fPGTpV6T3nZb/TV3p7pJ5n3MOtohu6QmLK%2boUL%2bSoz9vyeM6jpa9r95VAN3Ujx/ZQu/brYX1L95K9J0d4pWRCMqQoDgDj7iMcnIB0P26IUtysJuV5WdZVlmsFPTCdwGMgE4J5xrxvm13XTbOnbUNmt6c3qTPBGrkFu54wfb1Cozj/wA1RRpTUq3Ve3b/ADFWuCragvMpdSqynu7iB9rYbn286Y0wXFYXxxKanGCRz2hC3Qhk3LcBRlSUwydz5b1CndyE7%2be7GD7n49tao4ZRQEw7SO0NgeeeNZ9uqUq/QV6qNxhaXcbHqJNCD3Rwr3ImT8k5OBz/ADpXStbp7jaFOxMYHjDD1CAVXIGTk%2b/xoWTGCaBhFycmPfUlavHtbSrKWmSVHLs3cSe8cH2GvP0sn/45cvULsgkEldrSAEnKpIwcDjg4ZT%2bx1zjoNL9/qSzStiWaJ4mn7C/cP8wAW/Px/Gj31V3a/tUsFOrlWmrhZGjX7sd5OO728eNcxJeQJIPqgA8moc%2bsdjdOqNonTbpILdON4nrUoAHldu0h3Z/y7m444GdIv0ri3Tp7fjvsm2rANursJEeyqNYVj2s4ySOBxgcZ/PS%2bd5sV6UbRWJkKt3hQxwp92x7HTiK4k26xYhk2yvUkpRxzSPJjDZ9QnHJBB042Mou0nv8AiF1OlXCw2mxU6Jt3Uybjuy73HDBCDOsjySMoaJgCvbLyMMFyAceGGNIHVbXpKKf0O4G%2bZgbNiBYzle1mw6fKDPg/kdAN23qBeoKsteGCSpJPHLZYFiJhlCyup4wMEj5B10X6tblt1Hp2jFQirPYnmijgnjQArAArt248K3A448jVkVlcMPPb9xXLlBUIVFgdxEDbppLHT9xZq1iCWOVZ6/4LAMO3D4bx7ZI1v2barV7bhcoAvG6lZIwDwQ3nPuPt1X08Lktrf3t3ezbqjGNVZcKjHlQe0ZIAI40J23cd221ymybsqxjujIEZCNhiQQp5GcjzoWQbnJHPWVVqXrOr9EbPTpUK9uvGVszwIry5%2b4r5xn4zob11Uig3QRAGSK4uJUkORkcZHwf%2btTU0gpJykmD9QAGnscVFi76dKyBVrwRd5SMlYx44H8/J9zpUtwx1597k7Fklo2oUheQBjgvzn5/fU1NaGmY2esUwsX3Mxs3GLqDpylH0/SkQzCQxNI7dw/EYgHLcaF9UuLfTWyXZUX1gHhAX7UVVwAAo4Huf1Opqa7jYll9zH6G1vYR66KgWt0zWjUmRZAzv6gDdxJxyMY4wMfGNZ%2bp9mpQ0GswxCORAAe3ADAnGCPfU1NIsT8T7w6j5J//Z' /%3e%3c/svg%3e"},"path":"/blog/reply-1988/","timeToRead":6,"category":{"id":"Family, Comedy, Romance","title":"Family, Comedy, Romance"},"author":[{"id":"author3","name":"tvN","image":{"type":"image","mimeType":"image/png","src":"/6110110113_gridsome/assets/static/tvN.3db9db9.a17ffb472c94c02b32e3572bc4a2e76f.png","size":{"width":24,"height":11},"sizes":"(max-width: 24px) 100vw, 24px","srcset":["/6110110113_gridsome/assets/static/tvN.3db9db9.a17ffb472c94c02b32e3572bc4a2e76f.png 24w"],"dataUri":"data:image/svg+xml,%3csvg fill='none' viewBox='0 0 24 11' xmlns='http://www.w3.org/2000/svg' xmlns:xlink='http://www.w3.org/1999/xlink'%3e%3cdefs%3e%3cfilter id='__svg-blur-64d282e3ef173220c2d127cb09ad3807'%3e%3cfeGaussianBlur in='SourceGraphic' stdDeviation='40'/%3e%3c/filter%3e%3c/defs%3e%3cimage x='0' y='0' filter='url(%23__svg-blur-64d282e3ef173220c2d127cb09ad3807)' width='24' height='11' xlink:href='data:image/png%3bbase64%2ciVBORw0KGgoAAAANSUhEUgAAAEAAAAAcCAIAAABeRy4FAAAACXBIWXMAAAsSAAALEgHS3X78AAAK3klEQVRYw4WYa4xV1RXHzzxgwAoD6CAFBURjFS0%2bafxQaapGwGg0JmDSGkWUViygFIP2gxoTH/2ibaRGjSREosYQKmqIxmgbDMRIkGDQSiKMTBh07mPu4zz33uece6e/vfd9nDtQOjk5d825a//PXmv912NfZ2xsTAgxOjqKEIZhqVRC8H2/XC4juK5bqVQQuHueh4BCEAQILEG/Xq8Xi0UpZa1WKxQKSZKkaYrAPY5jvkIhi2%2bFNn61WrX45bLnugg8b%2bFHUaTxCwUpRC1NEWKlkji2%2bEop8B3Q0QP6zEJo/vg/DAIe2idnFv4/rFKhUpFSIo4bgpSnoDU0tY6UURyjpgWDwlcORvBhXWstxnSMw6N8hRdxKk%2b0xVE0GgT1sTHZ9Cj6rYjZQBElfIrA3UaM59ajFt%2b6VkcM1/74o%2bQV5XJhcDCpVJCLP/1UM/gWtoFfr3sjI%2bWhIV7jnjxZOXGizltKJc/30XEshdBj61hiI5ulkGsiywLU4717yzt26O3UalmDQcBgBGswO%2bGOF3jC8yx%2bw2CYiVMfXCNnnCMXXCTnzpMXLpDnDoiVKythGHgeyhrf97HH/de/xew5ct58fc2/UP58TnTddWmlotJ0FAplw316gQ/fx3Xh%2b%2b%2bLadOizz7TMk8yOpZgp31yGgESEn/XlQsWxI4Td3fre1cXdzlhYnDoEF5p4Hse3Iheekkr9Pbqe0%2bPVluyhOSzZHYw1OYiLud/qMITQmwFJQR5U45j8Y9X4u4eMWtWWq2KJCmXSrjWRgyBiMEZQKBNI2LVKg95YinUwke5RNKPjSXffisn9oEZ906Ie3r1NXGSYovPPSdI5UIBTSJQqdXkvffqraOMTl8fOvKJv/AOWAtsm0K2SrQopDldq8FoNqTWb5BAOI5atpxdBM1y1KKQrUKWQlgOhWwV4sm4KqRflKaQsPrqq8aj%2bLWrcXX3JI4TXnppZNKpRBUSok7WXrYw0YHqsTqsqm7fnsBnA%2bvgM/YBX30E3ydTISglQPp%2bkKYh/rvtNv2mvkncww0bcF6Ed7GKZUFgBSKOmwFhi1bgjqwFaNCERV8LlQo%2bFhseMcSY0DaAq6sbBweffEK%2bAUG8/O/%2bIydNNhzr1hdOnDRZHjkSJImGVcrB5bwpTRIiDbmxDE6QkjHC4cPiyqsSu/ueXqC9Xe/xHAoR2RSPwhAjBFJS0QmCpRBe504Ya0lSxd/1OjpoRkYoex746oYl4yPApf91gtWrIUdqapb79ttxp/vlLy6lPrieh8d5o6EQ/cX3IWW4br23YYPavDl49FEfD82bb97RcJJyuuT993t/3hQ%2b8mj8%2bOPe%2bvXhxo3qiSfcBx6Q77zDzgq5nK1C%2bXxel10pixTH116L/rTOwoaPPeY%2b8GB64EBUKET9/Yn1a2cEtI9nz6GE60aJQ598UrUCZcwLV64sSqHbmFJ0NIdsCz0Px4fPPsfXiUn2xFy6MmRfYNATkwxtobsbQVxySVCpJLVa4Os/dk/yBGN1%2bcUXsqtLo2koLcj%2b/uqxY8HeverU3TczQbNo2zYdaurETTcnrUAZFoQvvMBuPVMbcJYxwPfRju64o1WnGsG1gWtfTvui9k2YqB3DNVFXBn/3bnADwxxwYRIpFN96ayN/UDNZFL34IhUgeP758fxpGWPdvHSpYkv5PB0gbplqMiT69FN2S9VrGNCYhYpFcddd8rKF4sqr1TXXyKuvVmf9zOy17Xt5wVy1eLH45SJ57bVq7tw2rnml%2bMMfdd8WQs9CIyMwKtn5T5mhL46MLr%2b8WijoXn7PPacY0Mmivknl777zDxxQnXtQAzPF8PBotUrS2lkrk8TFIo0jEYK5KiwW1Nx57ewxi8OPPqoIkZCCFMFdu9ocMLkl5s2LqU5RZLMZLomrrmojmOjLt94iSm6pJC5b2P6K7OruVlOntv1llV9/Xe7cqVp22iK7eLFPyU7TRpEgiakbGCApo6ZBMofQfqL9%2b1VXd7Z4yenTwxMnqFsoRFJSAcTChdn6oF/53i7SLqD9cf/b3%2bMMd7WFv72R8sVX3jeH5eSOyigHzgs3b447PSJvuUWsWdMG0XnsRA8/TA9RpljbMu2MH6fzeQS5dWs7963p116H6Y1x2oxrwaZN2S2i461YATtJ5dEfBsXs2dkiA5fSfftCujvz8IcfZv2q97pokTs4KAYG2jZoFvWR8Vmisip5801iWISizXHdaY31trPW4rhcrwWrVsWduR%2bvW8/2R/N5PZxhJ1z66is1jrgDA9Xvv6fJK%2bvOjPvVqvtpL7TYesvyZmXETv/OO7E8Xr1anTkxenqrX37pKsWI0Jp2O4c5c9FIo%2buvH2dA9Nrreoajmza1IdKpLA/efTfI5eTks1oM0aVz8uTw669pq3o5tWXZsvHEMPNPZPMqW/papcmm2QUXBIWCPgyEYWs07Byng4DjUDoyIvunZTnKyyr79lHeMb1xYmKeo5Y9/XQyztN3363Wrh1HrWDTYyjXzYmkNDws55yfrYywK9mzh%2b5d5RyysCO5x3XocOkyTVEpYU1rXO%2bkkJ2/LUebL9Aemj0nrbqSk02x2JjvOSuSKgcPSuObDHEnKcbG5lpdOmfNioaOo1yi%2b46NpYcOSTM5tzO4f1rpyBEyR%2bf3xo2nmS9MoPSWnnnGMyeT7IGpcaTEqfoU53nkePTss3Fn95a33x6aMwA6Nv21wMiepvLGm87QknRp2rIlMg2OlXq4f%2bUV1Rk0%2besb6B28OsQ1Bw8q%2buOpTdq25127NAPN4NjatqPH7ojsqqQaxWf2khSTDEf1Jp56yjPzd81kD8sQdN8gX7dsUaf1mWXtoisT0KWktzC9YIC/alXSmQBi7dqaaQ6UZtqfWPKb03nEUVOmVDhC1McYsaAxJUgawWEeavwKwIb0/K3kxRePK/DVHTsoXkzCrV8ZEDiqEoHSN9%2boKVP/l8%2bSDz7AaFt2wadux4t/pTJ5r/m5fTstHPNi8JNEvPHGqecE6wt9xOU03PkriUMqsCG6Gh%2bMu/6hQ2rChA6Onn22OnrUzt/YjabtIAiEUB8Pli8f/0qTu%2bHNN3txrEys9bEB7x4fElP7O8C7uoP9%2b0nNxrGBNDh6tK3TTABtwH33cUiAh9LsVpo/bHBsUkKMlPKEidu2Jc1zamInzSuuSMygb8dMPfyFoeUSdNQD3NatWtlMgY3Bk4hjwOefVykWVFvwSyXoIT/%2bWBlYOw6mgJ9/fsDBn32b0YDmhFejFSuS5ljZEqKXX66aHozvcL%2blEILD7G4pVMzlMIBMD50uMfM8ce5AdM65%2bpT90EMF0Z6/LYUQ9M8eQVBy3TQ3Ei24KJoyVTJpTZ/BKg5N3n2r/OaPFxo/Tal87gt/pUahIECeeV7U0yt/93u8ns/lbGfNj4xgTLx7dzixDwUx45xo2nRgAXf37NEUqlTs7zew3x6%2bHVYSYtzJdEdjKA8Px/m8OzxcOn48HR2tDg0xP6aZCLCMDdlQsJBVFdcNOafnckXGAXpILlc4dkySuk1XaXyKBMmQz48ODibFonviRHloiIOPVyj4Bg18Cws%2bEWZIGP3hB//kSXwGbDgyEoNWreJ1GwHujQjYF7BeC2EIwWOyE4qzOUqnlIHZpW%2bKlx70zfBnBRayiugLuI6RDIUcxFItKDP2kXM2xxr4TIGgGXwKoaa%2bKYWg2dTSAvjAko1RBGzMsRhf0LbMiyz19e8MxgCE/wKgKQwVQMSYuwAAAABJRU5ErkJggg==' /%3e%3c/svg%3e"},"path":"/author/tv-n/"}]}},{"node":{"title":"Vincenzo","excerpt":"Vincenzo Cassano, a South Korean-born Mafia lawyer in Italy, flees to his homeland after he finds himself caught in between two warring factions.","image":{"type":"image","mimeType":"image/jpeg","src":"/6110110113_gridsome/assets/static/vincenzo.2b6647f.3ce41e7d960628f8053a1353159908e2.jpg","size":{"width":758,"height":505},"sizes":"(max-width: 758px) 100vw, 758px","srcset":["/6110110113_gridsome/assets/static/vincenzo.2b6647f.3ce41e7d960628f8053a1353159908e2.jpg 758w"],"dataUri":"data:image/svg+xml,%3csvg fill='none' viewBox='0 0 758 505' xmlns='http://www.w3.org/2000/svg' xmlns:xlink='http://www.w3.org/1999/xlink'%3e%3cdefs%3e%3cfilter id='__svg-blur-628646f6088ae2fb23121159174183b1'%3e%3cfeGaussianBlur in='SourceGraphic' stdDeviation='40'/%3e%3c/filter%3e%3c/defs%3e%3cimage x='0' y='0' filter='url(%23__svg-blur-628646f6088ae2fb23121159174183b1)' width='758' height='505' xlink:href='data:image/jpeg%3bbase64%2c/9j/2wBDAAYEBQYFBAYGBQYHBwYIChAKCgkJChQODwwQFxQYGBcUFhYaHSUfGhsjHBYWICwgIyYnKSopGR8tMC0oMCUoKSj/2wBDAQcHBwoIChMKChMoGhYaKCgoKCgoKCgoKCgoKCgoKCgoKCgoKCgoKCgoKCgoKCgoKCgoKCgoKCgoKCgoKCgoKCj/wAARCAArAEADASIAAhEBAxEB/8QAGQAAAwEBAQAAAAAAAAAAAAAABQYHAwQB/8QAMBAAAgEDAwIFAgUFAQAAAAAAAQIDBAURAAYhEjEHE0FRYRQyInGBkcEVFiNC0aH/xAAXAQEAAwAAAAAAAAAAAAAAAAAAAQID/8QAGREBAAMBAQAAAAAAAAAAAAAAAAIDERIB/9oADAMBAAIRAxEAPwCMXjflxnnY0J%2bmgBwoXBJHyT66JbW37JLWwUl4QFZGCCcDBBJ46h7aL0HhHFFZxcL/AHWOnj8okHrAxJjhCCO45zzpW3ntBNq3%2b2wmoSUSyI/lRMWcJ1DByfVvQaCtV/RS08k05CRxqWZjwABpKOzd4bst5uy1MFut0mXp4Wdg7J3BIUeo550%2bb3s8l223VUVP1iSYoMAclesFh%2bwOt/EWCi29ZAtNUNUvW%2bTCsDPHH5MKuMgLjLZHGTn%2bNBJtlXe5f3Q1lvE6zfhZVY4%2b5R2BxznT1uO40%2b37RJW1C9ZBCogOC7HsNT%2b1UNIfFakWjqzJCszMH8sJkhSekBeNNm/Whq90bXtk7AQmrjkmB7dJcD/v76DaO0eIf9HF9lt1DHQtH5y0ztiUp37d%2b3uc679u3iiv9PI9JlZIiFljcYZD/wA%2bdPW7q5YOqxz3Rut4papqryx5cYAHSnl9ee2eT66gfh/WJB4hzxwys0FQGjyRjrPccfoToKtvy4x2umf6qrnioqgllWGNXPmYwc9XHbn4%2bdIOyq6a6bye%2b3Ond7bGGQVUwBWJgMLkn29/c6dbvXWq71K0VfTS1sNPIplWN8AEg8H39CRpK8QL%2bsVOlotUcdHRxHPkxfaD8%2b5/nQWN5wE60PcZBHqNTjxFuN6gsDR1tJRT0btiKs6S0qj0/LGNIVk3PXWSPpp6%2baoUj8UUpLpn4z2/TVL3Due4T0OyKOkpLXMK2n82ojqFBRjx3JIwO5/PQL3hBaqSalkvMoaSsEzxozH7RgZOPc576B%2bIUlRJvKqkL9JpwDBjuvSAQfzzk6yrtzVu3N2XIW%2bSikpjIA8UYIhc45Zecj2z8aBbjvbXi5PX%2bT5DugUqG6gSPXOgZ9x7pul/sVHV1tJTxuylDUwxYaXHBBP6dtJm3q36G9U9U3UsiTBg%2bceuD/OjNu3LLbtoLaaIxTVE87ylnTqECEAYGf8AYnn40ESEqhLsWI4Gff30Dpb7qLZZeoNmVgZCSeSx99I9fVtUVbO7Fue/v763uEjmONSx6fb9NB8nOgM2WrSlvFBPIgdIqiN2UjIYBgcYOqi95tsd5twuVtg%2bnhkmgign6VTpWJMnBJPTkN088t66kVsRZKtVcdS88HW1zC0wBgVVLE54Bz%2b%2bsrK%2b/d1eMsVOluFO1dXyUVCsgekiLinSnf6c5YlkXBLyjKgKOMdWTnGpHWzRvN/gjeNFGMO3USfU9h%2b2ubz3k6QxXg5GFAP/AJrxfu1NcOESlrrt7BWdT37jXTLLzhew0PQkTca0YnA51oq//9k=' /%3e%3c/svg%3e"},"path":"/blog/vincenzo/","timeToRead":2,"category":{"id":"Recommend","title":"Recommend"},"author":[{"id":"author3","name":"tvN","image":{"type":"image","mimeType":"image/png","src":"/6110110113_gridsome/assets/static/tvN.3db9db9.a17ffb472c94c02b32e3572bc4a2e76f.png","size":{"width":24,"height":11},"sizes":"(max-width: 24px) 100vw, 24px","srcset":["/6110110113_gridsome/assets/static/tvN.3db9db9.a17ffb472c94c02b32e3572bc4a2e76f.png 24w"],"dataUri":"data:image/svg+xml,%3csvg fill='none' viewBox='0 0 24 11' xmlns='http://www.w3.org/2000/svg' xmlns:xlink='http://www.w3.org/1999/xlink'%3e%3cdefs%3e%3cfilter id='__svg-blur-64d282e3ef173220c2d127cb09ad3807'%3e%3cfeGaussianBlur in='SourceGraphic' stdDeviation='40'/%3e%3c/filter%3e%3c/defs%3e%3cimage x='0' y='0' filter='url(%23__svg-blur-64d282e3ef173220c2d127cb09ad3807)' width='24' height='11' xlink:href='data:image/png%3bbase64%2ciVBORw0KGgoAAAANSUhEUgAAAEAAAAAcCAIAAABeRy4FAAAACXBIWXMAAAsSAAALEgHS3X78AAAK3klEQVRYw4WYa4xV1RXHzzxgwAoD6CAFBURjFS0%2bafxQaapGwGg0JmDSGkWUViygFIP2gxoTH/2ibaRGjSREosYQKmqIxmgbDMRIkGDQSiKMTBh07mPu4zz33uece6e/vfd9nDtQOjk5d825a//PXmv912NfZ2xsTAgxOjqKEIZhqVRC8H2/XC4juK5bqVQQuHueh4BCEAQILEG/Xq8Xi0UpZa1WKxQKSZKkaYrAPY5jvkIhi2%2bFNn61WrX45bLnugg8b%2bFHUaTxCwUpRC1NEWKlkji2%2bEop8B3Q0QP6zEJo/vg/DAIe2idnFv4/rFKhUpFSIo4bgpSnoDU0tY6UURyjpgWDwlcORvBhXWstxnSMw6N8hRdxKk%2b0xVE0GgT1sTHZ9Cj6rYjZQBElfIrA3UaM59ajFt%2b6VkcM1/74o%2bQV5XJhcDCpVJCLP/1UM/gWtoFfr3sjI%2bWhIV7jnjxZOXGizltKJc/30XEshdBj61hiI5ulkGsiywLU4717yzt26O3UalmDQcBgBGswO%2bGOF3jC8yx%2bw2CYiVMfXCNnnCMXXCTnzpMXLpDnDoiVKythGHgeyhrf97HH/de/xew5ct58fc2/UP58TnTddWmlotJ0FAplw316gQ/fx3Xh%2b%2b%2bLadOizz7TMk8yOpZgp31yGgESEn/XlQsWxI4Td3fre1cXdzlhYnDoEF5p4Hse3Iheekkr9Pbqe0%2bPVluyhOSzZHYw1OYiLud/qMITQmwFJQR5U45j8Y9X4u4eMWtWWq2KJCmXSrjWRgyBiMEZQKBNI2LVKg95YinUwke5RNKPjSXffisn9oEZ906Ie3r1NXGSYovPPSdI5UIBTSJQqdXkvffqraOMTl8fOvKJv/AOWAtsm0K2SrQopDldq8FoNqTWb5BAOI5atpxdBM1y1KKQrUKWQlgOhWwV4sm4KqRflKaQsPrqq8aj%2bLWrcXX3JI4TXnppZNKpRBUSok7WXrYw0YHqsTqsqm7fnsBnA%2bvgM/YBX30E3ydTISglQPp%2bkKYh/rvtNv2mvkncww0bcF6Ed7GKZUFgBSKOmwFhi1bgjqwFaNCERV8LlQo%2bFhseMcSY0DaAq6sbBweffEK%2bAUG8/O/%2bIydNNhzr1hdOnDRZHjkSJImGVcrB5bwpTRIiDbmxDE6QkjHC4cPiyqsSu/ueXqC9Xe/xHAoR2RSPwhAjBFJS0QmCpRBe504Ya0lSxd/1OjpoRkYoex746oYl4yPApf91gtWrIUdqapb79ttxp/vlLy6lPrieh8d5o6EQ/cX3IWW4br23YYPavDl49FEfD82bb97RcJJyuuT993t/3hQ%2b8mj8%2bOPe%2bvXhxo3qiSfcBx6Q77zDzgq5nK1C%2bXxel10pixTH116L/rTOwoaPPeY%2b8GB64EBUKET9/Yn1a2cEtI9nz6GE60aJQ598UrUCZcwLV64sSqHbmFJ0NIdsCz0Px4fPPsfXiUn2xFy6MmRfYNATkwxtobsbQVxySVCpJLVa4Os/dk/yBGN1%2bcUXsqtLo2koLcj%2b/uqxY8HeverU3TczQbNo2zYdaurETTcnrUAZFoQvvMBuPVMbcJYxwPfRju64o1WnGsG1gWtfTvui9k2YqB3DNVFXBn/3bnADwxxwYRIpFN96ayN/UDNZFL34IhUgeP758fxpGWPdvHSpYkv5PB0gbplqMiT69FN2S9VrGNCYhYpFcddd8rKF4sqr1TXXyKuvVmf9zOy17Xt5wVy1eLH45SJ57bVq7tw2rnml%2bMMfdd8WQs9CIyMwKtn5T5mhL46MLr%2b8WijoXn7PPacY0Mmivknl777zDxxQnXtQAzPF8PBotUrS2lkrk8TFIo0jEYK5KiwW1Nx57ewxi8OPPqoIkZCCFMFdu9ocMLkl5s2LqU5RZLMZLomrrmojmOjLt94iSm6pJC5b2P6K7OruVlOntv1llV9/Xe7cqVp22iK7eLFPyU7TRpEgiakbGCApo6ZBMofQfqL9%2b1VXd7Z4yenTwxMnqFsoRFJSAcTChdn6oF/53i7SLqD9cf/b3%2bMMd7WFv72R8sVX3jeH5eSOyigHzgs3b447PSJvuUWsWdMG0XnsRA8/TA9RpljbMu2MH6fzeQS5dWs7963p116H6Y1x2oxrwaZN2S2i461YATtJ5dEfBsXs2dkiA5fSfftCujvz8IcfZv2q97pokTs4KAYG2jZoFvWR8Vmisip5801iWISizXHdaY31trPW4rhcrwWrVsWduR%2bvW8/2R/N5PZxhJ1z66is1jrgDA9Xvv6fJK%2bvOjPvVqvtpL7TYesvyZmXETv/OO7E8Xr1anTkxenqrX37pKsWI0Jp2O4c5c9FIo%2buvH2dA9Nrreoajmza1IdKpLA/efTfI5eTks1oM0aVz8uTw669pq3o5tWXZsvHEMPNPZPMqW/papcmm2QUXBIWCPgyEYWs07Byng4DjUDoyIvunZTnKyyr79lHeMb1xYmKeo5Y9/XQyztN3363Wrh1HrWDTYyjXzYmkNDws55yfrYywK9mzh%2b5d5RyysCO5x3XocOkyTVEpYU1rXO%2bkkJ2/LUebL9Aemj0nrbqSk02x2JjvOSuSKgcPSuObDHEnKcbG5lpdOmfNioaOo1yi%2b46NpYcOSTM5tzO4f1rpyBEyR%2bf3xo2nmS9MoPSWnnnGMyeT7IGpcaTEqfoU53nkePTss3Fn95a33x6aMwA6Nv21wMiepvLGm87QknRp2rIlMg2OlXq4f%2bUV1Rk0%2besb6B28OsQ1Bw8q%2buOpTdq25127NAPN4NjatqPH7ojsqqQaxWf2khSTDEf1Jp56yjPzd81kD8sQdN8gX7dsUaf1mWXtoisT0KWktzC9YIC/alXSmQBi7dqaaQ6UZtqfWPKb03nEUVOmVDhC1McYsaAxJUgawWEeavwKwIb0/K3kxRePK/DVHTsoXkzCrV8ZEDiqEoHSN9%2boKVP/l8%2bSDz7AaFt2wadux4t/pTJ5r/m5fTstHPNi8JNEvPHGqecE6wt9xOU03PkriUMqsCG6Gh%2bMu/6hQ2rChA6Onn22OnrUzt/YjabtIAiEUB8Pli8f/0qTu%2bHNN3txrEys9bEB7x4fElP7O8C7uoP9%2b0nNxrGBNDh6tK3TTABtwH33cUiAh9LsVpo/bHBsUkKMlPKEidu2Jc1zamInzSuuSMygb8dMPfyFoeUSdNQD3NatWtlMgY3Bk4hjwOefVykWVFvwSyXoIT/%2bWBlYOw6mgJ9/fsDBn32b0YDmhFejFSuS5ljZEqKXX66aHozvcL%2blEILD7G4pVMzlMIBMD50uMfM8ce5AdM65%2bpT90EMF0Z6/LYUQ9M8eQVBy3TQ3Ei24KJoyVTJpTZ/BKg5N3n2r/OaPFxo/Tal87gt/pUahIECeeV7U0yt/93u8ns/lbGfNj4xgTLx7dzixDwUx45xo2nRgAXf37NEUqlTs7zew3x6%2bHVYSYtzJdEdjKA8Px/m8OzxcOn48HR2tDg0xP6aZCLCMDdlQsJBVFdcNOafnckXGAXpILlc4dkySuk1XaXyKBMmQz48ODibFonviRHloiIOPVyj4Bg18Cws%2bEWZIGP3hB//kSXwGbDgyEoNWreJ1GwHujQjYF7BeC2EIwWOyE4qzOUqnlIHZpW%2bKlx70zfBnBRayiugLuI6RDIUcxFItKDP2kXM2xxr4TIGgGXwKoaa%2bKYWg2dTSAvjAko1RBGzMsRhf0LbMiyz19e8MxgCE/wKgKQwVQMSYuwAAAABJRU5ErkJggg==' /%3e%3c/svg%3e"},"path":"/author/tv-n/"}]}}]}}},"context":{}}